# Goxel 0.10.8
# One line per voxel
# X Y Z RRGGBB
-1 -10 0 ffffff
-3 -9 0 ffffff
-2 -9 0 ffffff
-1 -9 0 ffffff
-4 -8 0 ffffff
-3 -8 0 ffffff
-2 -8 0 ffffff
-1 -8 0 ffffff
-5 -7 0 ffffff
-4 -7 0 ffffff
-3 -7 0 ffffff
-2 -7 0 ffffff
-1 -7 0 ffffff
-6 -6 0 ffffff
-5 -6 0 ffffff
-4 -6 0 ffffff
-3 -6 0 ffffff
-2 -6 0 ffffff
-1 -6 0 ffffff
-6 -5 0 ffffff
-5 -5 0 ffffff
-4 -5 0 ffffff
-3 -5 0 ffffff
-2 -5 0 ffffff
-1 -5 0 ffffff
-7 -4 0 ffffff
-6 -4 0 ffffff
-5 -4 0 ffffff
-4 -4 0 ffffff
-3 -4 0 ffffff
-2 -4 0 ffffff
-1 -4 0 ffffff
-7 -3 0 ffffff
-6 -3 0 ffffff
-5 -3 0 ffffff
-4 -3 0 ffffff
-3 -3 0 ffffff
-2 -3 0 ffffff
-1 -3 0 ffffff
-7 -2 0 ffffff
-6 -2 0 ffffff
-5 -2 0 ffffff
-4 -2 0 ffffff
-3 -2 0 ffffff
-2 -2 0 ffffff
-1 -2 0 ffffff
-7 -1 0 ffffff
-6 -1 0 ffffff
-5 -1 0 ffffff
-4 -1 0 ffffff
-3 -1 0 ffffff
-2 -1 0 ffffff
-1 -1 0 ffffff
-1 -10 1 ffffff
-3 -9 1 ffffff
-2 -9 1 ffffff
-4 -8 1 ffffff
-5 -7 1 ffffff
-6 -6 1 ffffff
-6 -5 1 ffffff
-7 -4 1 ffffff
-7 -3 1 ffffff
-7 -2 1 ffffff
-7 -1 1 ffffff
-1 -10 2 ffffff
-3 -9 2 ffffff
-2 -9 2 ffffff
-4 -8 2 ffffff
-5 -7 2 ffffff
-6 -6 2 ffffff
-6 -5 2 ffffff
-7 -4 2 ffffff
-7 -3 2 ffffff
-7 -2 2 ffffff
-7 -1 2 ffffff
-1 -10 3 ffffff
-3 -9 3 ffffff
-2 -9 3 ffffff
-4 -8 3 ffffff
-5 -7 3 ffffff
-6 -6 3 ffffff
-6 -5 3 ffffff
-7 -4 3 ffffff
-7 -3 3 ffffff
-7 -2 3 ffffff
-7 -1 3 ffffff
-1 -10 4 ffffff
-3 -9 4 ffffff
-2 -9 4 ffffff
-4 -8 4 ffffff
-5 -7 4 ffffff
-6 -6 4 ffffff
-6 -5 4 ffffff
-7 -4 4 ffffff
-7 -3 4 ffffff
-7 -2 4 ffffff
-7 -1 4 ffffff
-1 -10 5 ffffff
-3 -9 5 ffffff
-2 -9 5 ffffff
-4 -8 5 ffffff
-5 -7 5 ffffff
-6 -6 5 ffffff
-6 -5 5 ffffff
-7 -4 5 ffffff
-7 -3 5 ffffff
-7 -2 5 ffffff
-7 -1 5 ffffff
-1 -10 6 ffffff
-3 -9 6 ffffff
-2 -9 6 ffffff
-4 -8 6 ffffff
-5 -7 6 ffffff
-6 -6 6 ffffff
-6 -5 6 ffffff
-7 -4 6 ffffff
-7 -3 6 ffffff
-7 -2 6 ffffff
-7 -1 6 ffffff
-1 -10 7 ffffff
-3 -9 7 ffffff
-2 -9 7 ffffff
-4 -8 7 ffffff
-5 -7 7 ffffff
-6 -6 7 ffffff
-6 -5 7 ffffff
-7 -4 7 ffffff
-7 -3 7 ffffff
-7 -2 7 ffffff
-7 -1 7 ffffff
-1 -10 8 ffffff
-3 -9 8 ffffff
-2 -9 8 ffffff
-4 -8 8 ffffff
-5 -7 8 ffffff
-6 -6 8 ffffff
-6 -5 8 ffffff
-7 -4 8 ffffff
-7 -3 8 ffffff
-7 -2 8 ffffff
-7 -1 8 ffffff
-1 -10 9 ffffff
-3 -9 9 ffffff
-2 -9 9 ffffff
-4 -8 9 ffffff
-5 -7 9 ffffff
-6 -6 9 ffffff
-6 -5 9 ffffff
-7 -4 9 ffffff
-7 -3 9 ffffff
-7 -2 9 ffffff
-7 -1 9 ffffff
-1 -10 10 ffffff
-3 -9 10 ffffff
-2 -9 10 ffffff
-4 -8 10 ffffff
-5 -7 10 ffffff
-6 -6 10 ffffff
-6 -5 10 ffffff
-7 -4 10 ffffff
-7 -3 10 ffffff
-7 -2 10 ffffff
-7 -1 10 ffffff
-1 -10 11 ffffff
-3 -9 11 ffffff
-2 -9 11 ffffff
-4 -8 11 ffffff
-5 -7 11 ffffff
-6 -6 11 ffffff
-6 -5 11 ffffff
-7 -4 11 ffffff
-7 -3 11 ffffff
-7 -2 11 ffffff
-7 -1 11 ffffff
-1 -10 12 ffffff
-3 -9 12 ffffff
-2 -9 12 ffffff
-4 -8 12 ffffff
-5 -7 12 ffffff
-6 -6 12 ffffff
-6 -5 12 ffffff
-7 -4 12 ffffff
-7 -3 12 ffffff
-7 -2 12 ffffff
-7 -1 12 ffffff
-1 -10 13 ffffff
-3 -9 13 ffffff
-2 -9 13 ffffff
-4 -8 13 ffffff
-5 -7 13 ffffff
-6 -6 13 ffffff
-6 -5 13 ffffff
-7 -4 13 ffffff
-7 -3 13 ffffff
-7 -2 13 ffffff
-7 -1 13 ffffff
-1 -10 14 ffffff
-3 -9 14 ffffff
-2 -9 14 ffffff
-4 -8 14 ffffff
-5 -7 14 ffffff
-6 -6 14 ffffff
-6 -5 14 ffffff
-7 -4 14 ffffff
-7 -3 14 ffffff
-7 -2 14 ffffff
-7 -1 14 ffffff
-1 -10 15 ffffff
-3 -9 15 ffffff
-2 -9 15 ffffff
-4 -8 15 ffffff
-5 -7 15 ffffff
-6 -6 15 ffffff
-6 -5 15 ffffff
-7 -4 15 ffffff
-7 -3 15 ffffff
-7 -2 15 ffffff
-7 -1 15 ffffff
0 -10 0 ffffff
1 -10 0 ffffff
2 -10 0 ffffff
3 -10 0 ffffff
4 -10 0 ffffff
0 -9 0 ffffff
1 -9 0 ffffff
2 -9 0 ffffff
3 -9 0 ffffff
4 -9 0 ffffff
5 -9 0 ffffff
6 -9 0 ffffff
0 -8 0 ffffff
1 -8 0 ffffff
2 -8 0 ffffff
3 -8 0 ffffff
4 -8 0 ffffff
5 -8 0 ffffff
6 -8 0 ffffff
7 -8 0 ffffff
0 -7 0 ffffff
1 -7 0 ffffff
2 -7 0 ffffff
3 -7 0 ffffff
4 -7 0 ffffff
5 -7 0 ffffff
6 -7 0 ffffff
7 -7 0 ffffff
8 -7 0 ffffff
0 -6 0 ffffff
1 -6 0 ffffff
2 -6 0 ffffff
3 -6 0 ffffff
4 -6 0 ffffff
5 -6 0 ffffff
6 -6 0 ffffff
7 -6 0 ffffff
8 -6 0 ffffff
9 -6 0 ffffff
0 -5 0 ffffff
1 -5 0 ffffff
2 -5 0 ffffff
3 -5 0 ffffff
4 -5 0 ffffff
5 -5 0 ffffff
6 -5 0 ffffff
7 -5 0 ffffff
8 -5 0 ffffff
9 -5 0 ffffff
0 -4 0 ffffff
1 -4 0 ffffff
2 -4 0 ffffff
3 -4 0 ffffff
4 -4 0 ffffff
5 -4 0 ffffff
6 -4 0 ffffff
7 -4 0 ffffff
8 -4 0 ffffff
9 -4 0 ffffff
10 -4 0 ffffff
0 -3 0 ffffff
1 -3 0 ffffff
2 -3 0 ffffff
3 -3 0 ffffff
4 -3 0 ffffff
5 -3 0 ffffff
6 -3 0 ffffff
7 -3 0 ffffff
8 -3 0 ffffff
9 -3 0 ffffff
10 -3 0 ffffff
0 -2 0 ffffff
1 -2 0 ffffff
2 -2 0 ffffff
3 -2 0 ffffff
4 -2 0 ffffff
5 -2 0 ffffff
6 -2 0 ffffff
7 -2 0 ffffff
8 -2 0 ffffff
9 -2 0 ffffff
10 -2 0 ffffff
0 -1 0 ffffff
1 -1 0 ffffff
2 -1 0 ffffff
3 -1 0 ffffff
4 -1 0 ffffff
5 -1 0 ffffff
6 -1 0 ffffff
7 -1 0 ffffff
8 -1 0 ffffff
9 -1 0 ffffff
10 -1 0 ffffff
0 -10 1 ffffff
1 -10 1 ffffff
2 -10 1 ffffff
3 -10 1 ffffff
4 -10 1 ffffff
5 -9 1 ffffff
6 -9 1 ffffff
7 -8 1 ffffff
8 -7 1 ffffff
9 -6 1 ffffff
9 -5 1 ffffff
10 -4 1 ffffff
10 -3 1 ffffff
10 -2 1 ffffff
10 -1 1 ffffff
0 -10 2 ffffff
1 -10 2 ffffff
2 -10 2 ffffff
3 -10 2 ffffff
4 -10 2 ffffff
5 -9 2 ffffff
6 -9 2 ffffff
7 -8 2 ffffff
8 -7 2 ffffff
9 -6 2 ffffff
9 -5 2 ffffff
10 -4 2 ffffff
10 -3 2 ffffff
10 -2 2 ffffff
10 -1 2 ffffff
0 -10 3 ffffff
1 -10 3 ffffff
2 -10 3 ffffff
3 -10 3 ffffff
4 -10 3 ffffff
5 -9 3 ffffff
6 -9 3 ffffff
7 -8 3 ffffff
8 -7 3 ffffff
9 -6 3 ffffff
9 -5 3 ffffff
10 -4 3 ffffff
10 -3 3 ffffff
10 -2 3 ffffff
10 -1 3 ffffff
0 -10 4 ffffff
1 -10 4 ffffff
2 -10 4 ffffff
3 -10 4 ffffff
4 -10 4 ffffff
5 -9 4 ffffff
6 -9 4 ffffff
7 -8 4 ffffff
8 -7 4 ffffff
9 -6 4 ffffff
9 -5 4 ffffff
10 -4 4 ffffff
10 -3 4 ffffff
10 -2 4 ffffff
10 -1 4 ffffff
0 -10 5 ffffff
1 -10 5 ffffff
2 -10 5 ffffff
3 -10 5 ffffff
4 -10 5 ffffff
5 -9 5 ffffff
6 -9 5 ffffff
7 -8 5 ffffff
8 -7 5 ffffff
9 -6 5 ffffff
9 -5 5 ffffff
10 -4 5 ffffff
10 -3 5 ffffff
10 -2 5 ffffff
10 -1 5 ffffff
0 -10 6 ffffff
1 -10 6 ffffff
2 -10 6 ffffff
3 -10 6 ffffff
4 -10 6 ffffff
5 -9 6 ffffff
6 -9 6 ffffff
7 -8 6 ffffff
8 -7 6 ffffff
9 -6 6 ffffff
9 -5 6 ffffff
10 -4 6 ffffff
10 -3 6 ffffff
10 -2 6 ffffff
10 -1 6 ffffff
0 -10 7 ffffff
1 -10 7 ffffff
2 -10 7 ffffff
3 -10 7 ffffff
4 -10 7 ffffff
5 -9 7 ffffff
6 -9 7 ffffff
7 -8 7 ffffff
8 -7 7 ffffff
9 -6 7 ffffff
9 -5 7 ffffff
10 -4 7 ffffff
10 -3 7 ffffff
10 -2 7 ffffff
10 -1 7 ffffff
0 -10 8 ffffff
1 -10 8 ffffff
2 -10 8 ffffff
3 -10 8 ffffff
4 -10 8 ffffff
5 -9 8 ffffff
6 -9 8 ffffff
7 -8 8 ffffff
8 -7 8 ffffff
9 -6 8 ffffff
9 -5 8 ffffff
10 -4 8 ffffff
10 -3 8 ffffff
10 -2 8 ffffff
10 -1 8 ffffff
0 -10 9 ffffff
1 -10 9 ffffff
2 -10 9 ffffff
3 -10 9 ffffff
4 -10 9 ffffff
5 -9 9 ffffff
6 -9 9 ffffff
7 -8 9 ffffff
8 -7 9 ffffff
9 -6 9 ffffff
9 -5 9 ffffff
10 -4 9 ffffff
10 -3 9 ffffff
10 -2 9 ffffff
10 -1 9 ffffff
0 -10 10 ffffff
1 -10 10 ffffff
2 -10 10 ffffff
3 -10 10 ffffff
4 -10 10 ffffff
5 -9 10 ffffff
6 -9 10 ffffff
7 -8 10 ffffff
8 -7 10 ffffff
9 -6 10 ffffff
9 -5 10 ffffff
10 -4 10 ffffff
10 -3 10 ffffff
10 -2 10 ffffff
10 -1 10 ffffff
0 -10 11 ffffff
1 -10 11 ffffff
2 -10 11 ffffff
3 -10 11 ffffff
4 -10 11 ffffff
5 -9 11 ffffff
6 -9 11 ffffff
7 -8 11 ffffff
8 -7 11 ffffff
9 -6 11 ffffff
9 -5 11 ffffff
10 -4 11 ffffff
10 -3 11 ffffff
10 -2 11 ffffff
10 -1 11 ffffff
0 -10 12 ffffff
1 -10 12 ffffff
2 -10 12 ffffff
3 -10 12 ffffff
4 -10 12 ffffff
5 -9 12 ffffff
6 -9 12 ffffff
7 -8 12 ffffff
8 -7 12 ffffff
9 -6 12 ffffff
9 -5 12 ffffff
10 -4 12 ffffff
10 -3 12 ffffff
10 -2 12 ffffff
10 -1 12 ffffff
0 -10 13 ffffff
1 -10 13 ffffff
2 -10 13 ffffff
3 -10 13 ffffff
4 -10 13 ffffff
5 -9 13 ffffff
6 -9 13 ffffff
7 -8 13 ffffff
8 -7 13 ffffff
9 -6 13 ffffff
9 -5 13 ffffff
10 -4 13 ffffff
10 -3 13 ffffff
10 -2 13 ffffff
10 -1 13 ffffff
0 -10 14 ffffff
1 -10 14 ffffff
2 -10 14 ffffff
3 -10 14 ffffff
4 -10 14 ffffff
5 -9 14 ffffff
6 -9 14 ffffff
7 -8 14 ffffff
8 -7 14 ffffff
9 -6 14 ffffff
9 -5 14 ffffff
10 -4 14 ffffff
10 -3 14 ffffff
10 -2 14 ffffff
10 -1 14 ffffff
0 -10 15 ffffff
1 -10 15 ffffff
2 -10 15 ffffff
3 -10 15 ffffff
4 -10 15 ffffff
5 -9 15 ffffff
6 -9 15 ffffff
7 -8 15 ffffff
8 -7 15 ffffff
9 -6 15 ffffff
9 -5 15 ffffff
10 -4 15 ffffff
10 -3 15 ffffff
10 -2 15 ffffff
10 -1 15 ffffff
-7 0 0 ffffff
-6 0 0 ffffff
-5 0 0 ffffff
-4 0 0 ffffff
-3 0 0 ffffff
-2 0 0 ffffff
-1 0 0 ffffff
-6 1 0 ffffff
-5 1 0 ffffff
-4 1 0 ffffff
-3 1 0 ffffff
-2 1 0 ffffff
-1 1 0 ffffff
-6 2 0 ffffff
-5 2 0 ffffff
-4 2 0 ffffff
-3 2 0 ffffff
-2 2 0 ffffff
-1 2 0 ffffff
-5 3 0 ffffff
-4 3 0 ffffff
-3 3 0 ffffff
-2 3 0 ffffff
-1 3 0 ffffff
-4 4 0 ffffff
-3 4 0 ffffff
-2 4 0 ffffff
-1 4 0 ffffff
-3 5 0 ffffff
-2 5 0 ffffff
-1 5 0 ffffff
-1 6 0 ffffff
-7 0 1 ffffff
-6 1 1 ffffff
-6 2 1 ffffff
-5 3 1 ffffff
-4 4 1 ffffff
-3 5 1 ffffff
-2 5 1 ffffff
-1 6 1 ffffff
-7 0 2 ffffff
-6 1 2 ffffff
-6 2 2 ffffff
-5 3 2 ffffff
-4 4 2 ffffff
-3 5 2 ffffff
-2 5 2 ffffff
-1 6 2 ffffff
-7 0 3 ffffff
-6 1 3 ffffff
-6 2 3 ffffff
-5 3 3 ffffff
-4 4 3 ffffff
-3 5 3 ffffff
-2 5 3 ffffff
-1 6 3 ffffff
-7 0 4 ffffff
-6 1 4 ffffff
-6 2 4 ffffff
-5 3 4 ffffff
-4 4 4 ffffff
-3 5 4 ffffff
-2 5 4 ffffff
-1 6 4 ffffff
-7 0 5 ffffff
-6 1 5 ffffff
-6 2 5 ffffff
-5 3 5 ffffff
-4 4 5 ffffff
-3 5 5 ffffff
-2 5 5 ffffff
-1 6 5 ffffff
-7 0 6 ffffff
-6 1 6 ffffff
-6 2 6 ffffff
-5 3 6 ffffff
-4 4 6 ffffff
-3 5 6 ffffff
-2 5 6 ffffff
-1 6 6 ffffff
-7 0 7 ffffff
-6 1 7 ffffff
-6 2 7 ffffff
-5 3 7 ffffff
-4 4 7 ffffff
-3 5 7 ffffff
-2 5 7 ffffff
-1 6 7 ffffff
-7 0 8 ffffff
-6 1 8 ffffff
-6 2 8 ffffff
-5 3 8 ffffff
-4 4 8 ffffff
-3 5 8 ffffff
-2 5 8 ffffff
-1 6 8 ffffff
-7 0 9 ffffff
-6 1 9 ffffff
-6 2 9 ffffff
-5 3 9 ffffff
-4 4 9 ffffff
-3 5 9 ffffff
-2 5 9 ffffff
-1 6 9 ffffff
-7 0 10 ffffff
-6 1 10 ffffff
-6 2 10 ffffff
-5 3 10 ffffff
-4 4 10 ffffff
-3 5 10 ffffff
-2 5 10 ffffff
-1 6 10 ffffff
-7 0 11 ffffff
-6 1 11 ffffff
-6 2 11 ffffff
-5 3 11 ffffff
-4 4 11 ffffff
-3 5 11 ffffff
-2 5 11 ffffff
-1 6 11 ffffff
-7 0 12 ffffff
-6 1 12 ffffff
-6 2 12 ffffff
-5 3 12 ffffff
-4 4 12 ffffff
-3 5 12 ffffff
-2 5 12 ffffff
-1 6 12 ffffff
-7 0 13 ffffff
-6 1 13 ffffff
-6 2 13 ffffff
-5 3 13 ffffff
-4 4 13 ffffff
-3 5 13 ffffff
-2 5 13 ffffff
-1 6 13 ffffff
-7 0 14 ffffff
-6 1 14 ffffff
-6 2 14 ffffff
-5 3 14 ffffff
-4 4 14 ffffff
-3 5 14 ffffff
-2 5 14 ffffff
-1 6 14 ffffff
-7 0 15 ffffff
-6 1 15 ffffff
-6 2 15 ffffff
-5 3 15 ffffff
-4 4 15 ffffff
-3 5 15 ffffff
-2 5 15 ffffff
-1 6 15 ffffff
0 0 0 ffffff
1 0 0 ffffff
2 0 0 ffffff
3 0 0 ffffff
4 0 0 ffffff
5 0 0 ffffff
6 0 0 ffffff
7 0 0 ffffff
8 0 0 ffffff
9 0 0 ffffff
10 0 0 ffffff
0 1 0 ffffff
1 1 0 ffffff
2 1 0 ffffff
3 1 0 ffffff
4 1 0 ffffff
5 1 0 ffffff
6 1 0 ffffff
7 1 0 ffffff
8 1 0 ffffff
9 1 0 ffffff
0 2 0 ffffff
1 2 0 ffffff
2 2 0 ffffff
3 2 0 ffffff
4 2 0 ffffff
5 2 0 ffffff
6 2 0 ffffff
7 2 0 ffffff
8 2 0 ffffff
9 2 0 ffffff
0 3 0 ffffff
1 3 0 ffffff
2 3 0 ffffff
3 3 0 ffffff
4 3 0 ffffff
5 3 0 ffffff
6 3 0 ffffff
7 3 0 ffffff
8 3 0 ffffff
0 4 0 ffffff
1 4 0 ffffff
2 4 0 ffffff
3 4 0 ffffff
4 4 0 ffffff
5 4 0 ffffff
6 4 0 ffffff
7 4 0 ffffff
0 5 0 ffffff
1 5 0 ffffff
2 5 0 ffffff
3 5 0 ffffff
4 5 0 ffffff
5 5 0 ffffff
6 5 0 ffffff
0 6 0 ffffff
1 6 0 ffffff
2 6 0 ffffff
3 6 0 ffffff
4 6 0 ffffff
10 0 1 ffffff
9 1 1 ffffff
9 2 1 ffffff
8 3 1 ffffff
7 4 1 ffffff
5 5 1 ffffff
6 5 1 ffffff
0 6 1 ffffff
1 6 1 ffffff
2 6 1 ffffff
3 6 1 ffffff
4 6 1 ffffff
10 0 2 ffffff
9 1 2 ffffff
9 2 2 ffffff
8 3 2 ffffff
7 4 2 ffffff
5 5 2 ffffff
6 5 2 ffffff
0 6 2 ffffff
1 6 2 ffffff
2 6 2 ffffff
3 6 2 ffffff
4 6 2 ffffff
10 0 3 ffffff
9 1 3 ffffff
9 2 3 ffffff
8 3 3 ffffff
7 4 3 ffffff
5 5 3 ffffff
6 5 3 ffffff
0 6 3 ffffff
1 6 3 ffffff
2 6 3 ffffff
3 6 3 ffffff
4 6 3 ffffff
10 0 4 ffffff
9 1 4 ffffff
9 2 4 ffffff
8 3 4 ffffff
7 4 4 ffffff
5 5 4 ffffff
6 5 4 ffffff
0 6 4 ffffff
1 6 4 ffffff
2 6 4 ffffff
3 6 4 ffffff
4 6 4 ffffff
10 0 5 ffffff
9 1 5 ffffff
9 2 5 ffffff
8 3 5 ffffff
7 4 5 ffffff
5 5 5 ffffff
6 5 5 ffffff
0 6 5 ffffff
1 6 5 ffffff
2 6 5 ffffff
3 6 5 ffffff
4 6 5 ffffff
10 0 6 ffffff
9 1 6 ffffff
9 2 6 ffffff
8 3 6 ffffff
7 4 6 ffffff
5 5 6 ffffff
6 5 6 ffffff
0 6 6 ffffff
1 6 6 ffffff
2 6 6 ffffff
3 6 6 ffffff
4 6 6 ffffff
10 0 7 ffffff
9 1 7 ffffff
9 2 7 ffffff
8 3 7 ffffff
7 4 7 ffffff
5 5 7 ffffff
6 5 7 ffffff
0 6 7 ffffff
1 6 7 ffffff
2 6 7 ffffff
3 6 7 ffffff
4 6 7 ffffff
10 0 8 ffffff
9 1 8 ffffff
9 2 8 ffffff
8 3 8 ffffff
7 4 8 ffffff
5 5 8 ffffff
6 5 8 ffffff
0 6 8 ffffff
1 6 8 ffffff
2 6 8 ffffff
3 6 8 ffffff
4 6 8 ffffff
10 0 9 ffffff
9 1 9 ffffff
9 2 9 ffffff
8 3 9 ffffff
7 4 9 ffffff
5 5 9 ffffff
6 5 9 ffffff
0 6 9 ffffff
1 6 9 ffffff
2 6 9 ffffff
3 6 9 ffffff
4 6 9 ffffff
10 0 10 ffffff
9 1 10 ffffff
9 2 10 ffffff
8 3 10 ffffff
7 4 10 ffffff
5 5 10 ffffff
6 5 10 ffffff
0 6 10 ffffff
1 6 10 ffffff
2 6 10 ffffff
3 6 10 ffffff
4 6 10 ffffff
10 0 11 ffffff
9 1 11 ffffff
9 2 11 ffffff
8 3 11 ffffff
7 4 11 ffffff
5 5 11 ffffff
6 5 11 ffffff
0 6 11 ffffff
1 6 11 ffffff
2 6 11 ffffff
3 6 11 ffffff
4 6 11 ffffff
10 0 12 ffffff
9 1 12 ffffff
9 2 12 ffffff
8 3 12 ffffff
7 4 12 ffffff
5 5 12 ffffff
6 5 12 ffffff
0 6 12 ffffff
1 6 12 ffffff
2 6 12 ffffff
3 6 12 ffffff
4 6 12 ffffff
10 0 13 ffffff
9 1 13 ffffff
9 2 13 ffffff
8 3 13 ffffff
7 4 13 ffffff
5 5 13 ffffff
6 5 13 ffffff
0 6 13 ffffff
1 6 13 ffffff
2 6 13 ffffff
3 6 13 ffffff
4 6 13 ffffff
10 0 14 ffffff
9 1 14 ffffff
9 2 14 ffffff
8 3 14 ffffff
7 4 14 ffffff
5 5 14 ffffff
6 5 14 ffffff
0 6 14 ffffff
1 6 14 ffffff
2 6 14 ffffff
3 6 14 ffffff
4 6 14 ffffff
10 0 15 ffffff
9 1 15 ffffff
9 2 15 ffffff
8 3 15 ffffff
7 4 15 ffffff
5 5 15 ffffff
6 5 15 ffffff
0 6 15 ffffff
1 6 15 ffffff
2 6 15 ffffff
3 6 15 ffffff
4 6 15 ffffff
-1 -10 16 ffffff
-3 -9 16 ffffff
-2 -9 16 ffffff
-4 -8 16 ffffff
-5 -7 16 ffffff
-6 -6 16 ffffff
-6 -5 16 ffffff
-7 -4 16 ffffff
-7 -3 16 ffffff
-7 -2 16 ffffff
-7 -1 16 ffffff
-1 -10 17 ffffff
-3 -9 17 ffffff
-2 -9 17 ffffff
-4 -8 17 ffffff
-5 -7 17 ffffff
-6 -6 17 ffffff
-6 -5 17 ffffff
-7 -4 17 ffffff
-7 -3 17 ffffff
-7 -2 17 ffffff
-7 -1 17 ffffff
-1 -10 18 ffffff
-3 -9 18 ffffff
-2 -9 18 ffffff
-4 -8 18 ffffff
-5 -7 18 ffffff
-6 -6 18 ffffff
-6 -5 18 ffffff
-7 -4 18 ffffff
-7 -3 18 ffffff
-7 -2 18 ffffff
-7 -1 18 ffffff
-1 -10 19 ffffff
-3 -9 19 ffffff
-2 -9 19 ffffff
-4 -8 19 ffffff
-5 -7 19 ffffff
-6 -6 19 ffffff
-6 -5 19 ffffff
-7 -4 19 ffffff
-7 -3 19 ffffff
-7 -2 19 ffffff
-7 -1 19 ffffff
-1 -10 20 ffffff
-3 -9 20 ffffff
-2 -9 20 ffffff
-4 -8 20 ffffff
-5 -7 20 ffffff
-6 -6 20 ffffff
-6 -5 20 ffffff
-7 -4 20 ffffff
-7 -3 20 ffffff
-7 -2 20 ffffff
-7 -1 20 ffffff
-1 -10 21 ffffff
-3 -9 21 ffffff
-2 -9 21 ffffff
-4 -8 21 ffffff
-5 -7 21 ffffff
-6 -6 21 ffffff
-6 -5 21 ffffff
-7 -4 21 ffffff
-7 -3 21 ffffff
-7 -2 21 ffffff
-7 -1 21 ffffff
-7 0 16 ffffff
-6 1 16 ffffff
-6 2 16 ffffff
-5 3 16 ffffff
-4 4 16 ffffff
-3 5 16 ffffff
-2 5 16 ffffff
-1 6 16 ffffff
-7 0 17 ffffff
-6 1 17 ffffff
-6 2 17 ffffff
-5 3 17 ffffff
-4 4 17 ffffff
-3 5 17 ffffff
-2 5 17 ffffff
-1 6 17 ffffff
-7 0 18 ffffff
-6 1 18 ffffff
-6 2 18 ffffff
-5 3 18 ffffff
-4 4 18 ffffff
-3 5 18 ffffff
-2 5 18 ffffff
-1 6 18 ffffff
-7 0 19 ffffff
-6 1 19 ffffff
-6 2 19 ffffff
-5 3 19 ffffff
-4 4 19 ffffff
-3 5 19 ffffff
-2 5 19 ffffff
-1 6 19 ffffff
-7 0 20 ffffff
-6 1 20 ffffff
-6 2 20 ffffff
-5 3 20 ffffff
-4 4 20 ffffff
-3 5 20 ffffff
-2 5 20 ffffff
-1 6 20 ffffff
-7 0 21 ffffff
-6 1 21 ffffff
-6 2 21 ffffff
-5 3 21 ffffff
-4 4 21 ffffff
-3 5 21 ffffff
-2 5 21 ffffff
-1 6 21 ffffff
0 -10 16 ffffff
1 -10 16 ffffff
2 -10 16 ffffff
3 -10 16 ffffff
4 -10 16 ffffff
5 -9 16 ffffff
6 -9 16 ffffff
7 -8 16 ffffff
8 -7 16 ffffff
9 -6 16 ffffff
9 -5 16 ffffff
10 -4 16 ffffff
10 -3 16 ffffff
10 -2 16 ffffff
10 -1 16 ffffff
0 -10 17 ffffff
1 -10 17 ffffff
2 -10 17 ffffff
3 -10 17 ffffff
4 -10 17 ffffff
5 -9 17 ffffff
6 -9 17 ffffff
7 -8 17 ffffff
8 -7 17 ffffff
9 -6 17 ffffff
9 -5 17 ffffff
10 -4 17 ffffff
10 -3 17 ffffff
10 -2 17 ffffff
10 -1 17 ffffff
0 -10 18 ffffff
1 -10 18 ffffff
2 -10 18 ffffff
3 -10 18 ffffff
4 -10 18 ffffff
5 -9 18 ffffff
6 -9 18 ffffff
7 -8 18 ffffff
8 -7 18 ffffff
9 -6 18 ffffff
9 -5 18 ffffff
10 -4 18 ffffff
10 -3 18 ffffff
10 -2 18 ffffff
10 -1 18 ffffff
0 -10 19 ffffff
1 -10 19 ffffff
2 -10 19 ffffff
3 -10 19 ffffff
4 -10 19 ffffff
5 -9 19 ffffff
6 -9 19 ffffff
7 -8 19 ffffff
8 -7 19 ffffff
9 -6 19 ffffff
9 -5 19 ffffff
10 -4 19 ffffff
10 -3 19 ffffff
10 -2 19 ffffff
10 -1 19 ffffff
0 -10 20 ffffff
1 -10 20 ffffff
2 -10 20 ffffff
3 -10 20 ffffff
4 -10 20 ffffff
5 -9 20 ffffff
6 -9 20 ffffff
7 -8 20 ffffff
8 -7 20 ffffff
9 -6 20 ffffff
9 -5 20 ffffff
10 -4 20 ffffff
10 -3 20 ffffff
10 -2 20 ffffff
10 -1 20 ffffff
0 -10 21 ffffff
1 -10 21 ffffff
2 -10 21 ffffff
3 -10 21 ffffff
4 -10 21 ffffff
5 -9 21 ffffff
6 -9 21 ffffff
7 -8 21 ffffff
8 -7 21 ffffff
9 -6 21 ffffff
9 -5 21 ffffff
10 -4 21 ffffff
10 -3 21 ffffff
10 -2 21 ffffff
10 -1 21 ffffff
10 0 16 ffffff
9 1 16 ffffff
9 2 16 ffffff
8 3 16 ffffff
7 4 16 ffffff
5 5 16 ffffff
6 5 16 ffffff
0 6 16 ffffff
1 6 16 ffffff
2 6 16 ffffff
3 6 16 ffffff
4 6 16 ffffff
10 0 17 ffffff
9 1 17 ffffff
9 2 17 ffffff
8 3 17 ffffff
7 4 17 ffffff
5 5 17 ffffff
6 5 17 ffffff
0 6 17 ffffff
1 6 17 ffffff
2 6 17 ffffff
3 6 17 ffffff
4 6 17 ffffff
10 0 18 ffffff
9 1 18 ffffff
9 2 18 ffffff
8 3 18 ffffff
7 4 18 ffffff
5 5 18 ffffff
6 5 18 ffffff
0 6 18 ffffff
1 6 18 ffffff
2 6 18 ffffff
3 6 18 ffffff
4 6 18 ffffff
10 0 19 ffffff
9 1 19 ffffff
9 2 19 ffffff
8 3 19 ffffff
7 4 19 ffffff
5 5 19 ffffff
6 5 19 ffffff
0 6 19 ffffff
1 6 19 ffffff
2 6 19 ffffff
3 6 19 ffffff
4 6 19 ffffff
10 0 20 ffffff
9 1 20 ffffff
9 2 20 ffffff
8 3 20 ffffff
7 4 20 ffffff
5 5 20 ffffff
6 5 20 ffffff
0 6 20 ffffff
1 6 20 ffffff
2 6 20 ffffff
3 6 20 ffffff
4 6 20 ffffff
10 0 21 ffffff
9 1 21 ffffff
9 2 21 ffffff
8 3 21 ffffff
7 4 21 ffffff
5 5 21 ffffff
6 5 21 ffffff
0 6 21 ffffff
1 6 21 ffffff
2 6 21 ffffff
3 6 21 ffffff
4 6 21 ffffff
